{
    "roots": {
        "original": "./readium-js-viewer",
        "archive": "./src/webview/archive-readium-js-viewer",
        "new": "./src/webview/blea-readium-js-viewer"
    },
    "dirs": [
        {
            "name": "templates",
            "dir": "/src/templates",
            "files": ["/*.html"]
        },
        {
            "name": "plugins",
            "dir": "/readium-js/readium-shared-js/plugins",
            "files": ["/plugins-override.cson"]
        },
        {
            "name": "helpers",
            "dir": "/readium-js/readium-shared-js/js",
            "files": ["/helpers.js"]
        },
        {
            "name": "style_theme_bw_name",
            "dir": "/src/i18n/_locales/en_US",
            "files": ["/messages.json"]
        },
        {
            "name": "css",
            "dir": "/src/css",
            "files": ["/*.css"]
        }
    ]
}
